{
    "href": "https://api.spotify.com/v1/artists/06HL4z0CvFAxyc27GXpf02/albums?offset=0&limit=5&include_groups=album,single,compilation,appears_on",
    "limit": 5,
    "next": "https://api.spotify.com/v1/artists/06HL4z0CvFAxyc27GXpf02/albums?offset=5&limit=5&include_groups=album,single,compilation,appears_on",
    "offset": 0,
    "previous": null,
    "total": 246,
    "items": [
        {
            "album_type": "album",
            "total_tracks": 31,
            "available_markets": [
                "AR",
                "AU",
                "AT",
                "BE",
                "BO",
                "BR",
                "BG",
                "CA",
                "CL",
                "CO",
                "CR",
                "CY",
                "CZ",
                "DK",
                "DO",
                "DE",
                "EC",
                "EE",
                "SV",
                "FI",
                "FR",
                "GR",
                "GT",
                "HN",
                "HK",
                "HU",
                "IS",
                "IE",
                "IT",
                "LV",
                "LT",
                "LU",
                "MY",
                "MT",
                "MX",
                "NL",
                "NZ",
                "NI",
                "NO",
                "PA",
                "PY",
                "PE",
                "PH",
                "PL",
                "PT",
                "SG",
                "SK",
                "ES",
                "SE",
                "CH",
                "TW",
                "TR",
                "UY",
                "US",
                "GB",
                "AD",
                "LI",
                "MC",
                "ID",
                "JP",
                "TH",
                "VN",
                "RO",
                "IL",
                "ZA",
                "SA",
                "AE",
                "BH",
                "QA",
                "OM",
                "KW",
                "EG",
                "MA",
                "DZ",
                "TN",
                "LB",
                "JO",
                "PS",
                "IN",
                "KZ",
                "MD",
                "UA",
                "AL",
                "BA",
                "HR",
                "ME",
                "MK",
                "RS",
                "SI",
                "KR",
                "BD",
                "PK",
                "LK",
                "GH",
                "KE",
                "NG",
                "TZ",
                "UG",
                "AG",
                "AM",
                "BS",
                "BB",
                "BZ",
                "BT",
                "BW",
                "BF",
                "CV",
                "CW",
                "DM",
                "FJ",
                "GM",
                "GE",
                "GD",
                "GW",
                "GY",
                "HT",
                "JM",
                "KI",
                "LS",
                "LR",
                "MW",
                "MV",
                "ML",
                "MH",
                "FM",
                "NA",
                "NR",
                "NE",
                "PW",
                "PG",
                "WS",
                "SM",
                "ST",
                "SN",
                "SC",
                "SL",
                "SB",
                "KN",
                "LC",
                "VC",
                "SR",
                "TL",
                "TO",
                "TT",
                "TV",
                "VU",
                "AZ",
                "BN",
                "BI",
                "KH",
                "CM",
                "TD",
                "KM",
                "GQ",
                "SZ",
                "GA",
                "GN",
                "KG",
                "LA",
                "MO",
                "MR",
                "MN",
                "NP",
                "RW",
                "TG",
                "UZ",
                "ZW",
                "BJ",
                "MG",
                "MU",
                "MZ",
                "AO",
                "CI",
                "DJ",
                "ZM",
                "CD",
                "CG",
                "IQ",
                "LY",
                "TJ",
                "VE",
                "ET",
                "XK"
            ],
            "external_urls": {
                "spotify": "https://open.spotify.com/album/5H7ixXZfsNMGbIE5OBSpcb"
            },
            "href": "https://api.spotify.com/v1/albums/5H7ixXZfsNMGbIE5OBSpcb",
            "id": "5H7ixXZfsNMGbIE5OBSpcb",
            "images": [
                {
                    "url": "https://i.scdn.co/image/ab67616d0000b2738ecc33f195df6aa257c39eaa",
                    "height": 640,
                    "width": 640
                },
                {
                    "url": "https://i.scdn.co/image/ab67616d00001e028ecc33f195df6aa257c39eaa",
                    "height": 300,
                    "width": 300
                },
                {
                    "url": "https://i.scdn.co/image/ab67616d000048518ecc33f195df6aa257c39eaa",
                    "height": 64,
                    "width": 64
                }
            ],
            "name": "THE TORTURED POETS DEPARTMENT: THE ANTHOLOGY",
            "release_date": "2024-04-19",
            "release_date_precision": "day",
            "type": "album",
            "uri": "spotify:album:5H7ixXZfsNMGbIE5OBSpcb",
            "artists": [
                {
                    "external_urls": {
                        "spotify": "https://open.spotify.com/artist/06HL4z0CvFAxyc27GXpf02"
                    },
                    "href": "https://api.spotify.com/v1/artists/06HL4z0CvFAxyc27GXpf02",
                    "id": "06HL4z0CvFAxyc27GXpf02",
                    "name": "Taylor Swift",
                    "type": "artist",
                    "uri": "spotify:artist:06HL4z0CvFAxyc27GXpf02"
                }
            ],
            "album_group": "album"
        },
        {
            "album_type": "album",
            "total_tracks": 16,
            "available_markets": [
                "AR",
                "AU",
                "AT",
                "BE",
                "BO",
                "BR",
                "BG",
                "CA",
                "CL",
                "CO",
                "CR",
                "CY",
                "CZ",
                "DK",
                "DO",
                "DE",
                "EC",
                "EE",
                "SV",
                "FI",
                "FR",
                "GR",
                "GT",
                "HN",
                "HK",
                "HU",
                "IS",
                "IE",
                "IT",
                "LV",
                "LT",
                "LU",
                "MY",
                "MT",
                "MX",
                "NL",
                "NZ",
                "NI",
                "NO",
                "PA",
                "PY",
                "PE",
                "PH",
                "PL",
                "PT",
                "SG",
                "SK",
                "ES",
                "SE",
                "CH",
                "TW",
                "TR",
                "UY",
                "US",
                "GB",
                "AD",
                "LI",
                "MC",
                "ID",
                "JP",
                "TH",
                "VN",
                "RO",
                "IL",
                "ZA",
                "SA",
                "AE",
                "BH",
                "QA",
                "OM",
                "KW",
                "EG",
                "MA",
                "DZ",
                "TN",
                "LB",
                "JO",
                "PS",
                "IN",
                "KZ",
                "MD",
                "UA",
                "AL",
                "BA",
                "HR",
                "ME",
                "MK",
                "RS",
                "SI",
                "KR",
                "BD",
                "PK",
                "LK",
                "GH",
                "KE",
                "NG",
                "TZ",
                "UG",
                "AG",
                "AM",
                "BS",
                "BB",
                "BZ",
                "BT",
                "BW",
                "BF",
                "CV",
                "CW",
                "DM",
                "FJ",
                "GM",
                "GE",
                "GD",
                "GW",
                "GY",
                "HT",
                "JM",
                "KI",
                "LS",
                "LR",
                "MW",
                "MV",
                "ML",
                "MH",
                "FM",
                "NA",
                "NR",
                "NE",
                "PW",
                "PG",
                "WS",
                "SM",
                "ST",
                "SN",
                "SC",
                "SL",
                "SB",
                "KN",
                "LC",
                "VC",
                "SR",
                "TL",
                "TO",
                "TT",
                "TV",
                "VU",
                "AZ",
                "BN",
                "BI",
                "KH",
                "CM",
                "TD",
                "KM",
                "GQ",
                "SZ",
                "GA",
                "GN",
                "KG",
                "LA",
                "MO",
                "MR",
                "MN",
                "NP",
                "RW",
                "TG",
                "UZ",
                "ZW",
                "BJ",
                "MG",
                "MU",
                "MZ",
                "AO",
                "CI",
                "DJ",
                "ZM",
                "CD",
                "CG",
                "IQ",
                "LY",
                "TJ",
                "VE",
                "ET",
                "XK"
            ],
            "external_urls": {
                "spotify": "https://open.spotify.com/album/1Mo4aZ8pdj6L1jx8zSwJnt"
            },
            "href": "https://api.spotify.com/v1/albums/1Mo4aZ8pdj6L1jx8zSwJnt",
            "id": "1Mo4aZ8pdj6L1jx8zSwJnt",
            "images": [
                {
                    "url": "https://i.scdn.co/image/ab67616d0000b2735076e4160d018e378f488c33",
                    "height": 640,
                    "width": 640
                },
                {
                    "url": "https://i.scdn.co/image/ab67616d00001e025076e4160d018e378f488c33",
                    "height": 300,
                    "width": 300
                },
                {
                    "url": "https://i.scdn.co/image/ab67616d000048515076e4160d018e378f488c33",
                    "height": 64,
                    "width": 64
                }
            ],
            "name": "THE TORTURED POETS DEPARTMENT",
            "release_date": "2024-04-18",
            "release_date_precision": "day",
            "type": "album",
            "uri": "spotify:album:1Mo4aZ8pdj6L1jx8zSwJnt",
            "artists": [
                {
                    "external_urls": {
                        "spotify": "https://open.spotify.com/artist/06HL4z0CvFAxyc27GXpf02"
                    },
                    "href": "https://api.spotify.com/v1/artists/06HL4z0CvFAxyc27GXpf02",
                    "id": "06HL4z0CvFAxyc27GXpf02",
                    "name": "Taylor Swift",
                    "type": "artist",
                    "uri": "spotify:artist:06HL4z0CvFAxyc27GXpf02"
                }
            ],
            "album_group": "album"
        },
        {
            "album_type": "album",
            "total_tracks": 22,
            "available_markets": [
                "AR",
                "AU",
                "AT",
                "BE",
                "BO",
                "BR",
                "BG",
                "CA",
                "CL",
                "CO",
                "CR",
                "CY",
                "CZ",
                "DK",
                "DO",
                "DE",
                "EC",
                "EE",
                "SV",
                "FI",
                "FR",
                "GR",
                "GT",
                "HN",
                "HK",
                "HU",
                "IS",
                "IE",
                "IT",
                "LV",
                "LT",
                "LU",
                "MY",
                "MT",
                "MX",
                "NL",
                "NZ",
                "NI",
                "NO",
                "PA",
                "PY",
                "PE",
                "PH",
                "PL",
                "PT",
                "SG",
                "SK",
                "ES",
                "SE",
                "CH",
                "TW",
                "TR",
                "UY",
                "US",
                "GB",
                "AD",
                "LI",
                "MC",
                "ID",
                "JP",
                "TH",
                "VN",
                "RO",
                "IL",
                "ZA",
                "SA",
                "AE",
                "BH",
                "QA",
                "OM",
                "KW",
                "EG",
                "MA",
                "DZ",
                "TN",
                "LB",
                "JO",
                "PS",
                "IN",
                "KZ",
                "MD",
                "UA",
                "AL",
                "BA",
                "HR",
                "ME",
                "MK",
                "RS",
                "SI",
                "KR",
                "BD",
                "PK",
                "LK",
                "GH",
                "KE",
                "NG",
                "TZ",
                "UG",
                "AG",
                "AM",
                "BS",
                "BB",
                "BZ",
                "BT",
                "BW",
                "BF",
                "CV",
                "CW",
                "DM",
                "FJ",
                "GM",
                "GE",
                "GD",
                "GW",
                "GY",
                "HT",
                "JM",
                "KI",
                "LS",
                "LR",
                "MW",
                "MV",
                "ML",
                "MH",
                "FM",
                "NA",
                "NR",
                "NE",
                "PW",
                "PG",
                "WS",
                "SM",
                "ST",
                "SN",
                "SC",
                "SL",
                "SB",
                "KN",
                "LC",
                "VC",
                "SR",
                "TL",
                "TO",
                "TT",
                "TV",
                "VU",
                "AZ",
                "BN",
                "BI",
                "KH",
                "CM",
                "TD",
                "KM",
                "GQ",
                "SZ",
                "GA",
                "GN",
                "KG",
                "LA",
                "MO",
                "MR",
                "MN",
                "NP",
                "RW",
                "TG",
                "UZ",
                "ZW",
                "BJ",
                "MG",
                "MU",
                "MZ",
                "AO",
                "CI",
                "DJ",
                "ZM",
                "CD",
                "CG",
                "IQ",
                "LY",
                "TJ",
                "VE",
                "ET",
                "XK"
            ],
            "external_urls": {
                "spotify": "https://open.spotify.com/album/1o59UpKw81iHR0HPiSkJR0"
            },
            "href": "https://api.spotify.com/v1/albums/1o59UpKw81iHR0HPiSkJR0",
            "id": "1o59UpKw81iHR0HPiSkJR0",
            "images": [
                {
                    "url": "https://i.scdn.co/image/ab67616d0000b273dc2bacae1dca83d26e2b1949",
                    "height": 640,
                    "width": 640
                },
                {
                    "url": "https://i.scdn.co/image/ab67616d00001e02dc2bacae1dca83d26e2b1949",
                    "height": 300,
                    "width": 300
                },
                {
                    "url": "https://i.scdn.co/image/ab67616d00004851dc2bacae1dca83d26e2b1949",
                    "height": 64,
                    "width": 64
                }
            ],
            "name": "1989 (Taylor's Version) [Deluxe]",
            "release_date": "2023-10-27",
            "release_date_precision": "day",
            "type": "album",
            "uri": "spotify:album:1o59UpKw81iHR0HPiSkJR0",
            "artists": [
                {
                    "external_urls": {
                        "spotify": "https://open.spotify.com/artist/06HL4z0CvFAxyc27GXpf02"
                    },
                    "href": "https://api.spotify.com/v1/artists/06HL4z0CvFAxyc27GXpf02",
                    "id": "06HL4z0CvFAxyc27GXpf02",
                    "name": "Taylor Swift",
                    "type": "artist",
                    "uri": "spotify:artist:06HL4z0CvFAxyc27GXpf02"
                }
            ],
            "album_group": "album"
        },
        {
            "album_type": "album",
            "total_tracks": 21,
            "available_markets": [
                "AR",
                "AU",
                "AT",
                "BE",
                "BO",
                "BR",
                "BG",
                "CA",
                "CL",
                "CO",
                "CR",
                "CY",
                "CZ",
                "DK",
                "DO",
                "DE",
                "EC",
                "EE",
                "SV",
                "FI",
                "FR",
                "GR",
                "GT",
                "HN",
                "HK",
                "HU",
                "IS",
                "IE",
                "IT",
                "LV",
                "LT",
                "LU",
                "MY",
                "MT",
                "MX",
                "NL",
                "NZ",
                "NI",
                "NO",
                "PA",
                "PY",
                "PE",
                "PH",
                "PL",
                "PT",
                "SG",
                "SK",
                "ES",
                "SE",
                "CH",
                "TW",
                "TR",
                "UY",
                "US",
                "GB",
                "AD",
                "LI",
                "MC",
                "ID",
                "JP",
                "TH",
                "VN",
                "RO",
                "IL",
                "ZA",
                "SA",
                "AE",
                "BH",
                "QA",
                "OM",
                "KW",
                "EG",
                "MA",
                "DZ",
                "TN",
                "LB",
                "JO",
                "PS",
                "IN",
                "KZ",
                "MD",
                "UA",
                "AL",
                "BA",
                "HR",
                "ME",
                "MK",
                "RS",
                "SI",
                "KR",
                "BD",
                "PK",
                "LK",
                "GH",
                "KE",
                "NG",
                "TZ",
                "UG",
                "AG",
                "AM",
                "BS",
                "BB",
                "BZ",
                "BT",
                "BW",
                "BF",
                "CV",
                "CW",
                "DM",
                "FJ",
                "GM",
                "GE",
                "GD",
                "GW",
                "GY",
                "HT",
                "JM",
                "KI",
                "LS",
                "LR",
                "MW",
                "MV",
                "ML",
                "MH",
                "FM",
                "NA",
                "NR",
                "NE",
                "PW",
                "PG",
                "WS",
                "SM",
                "ST",
                "SN",
                "SC",
                "SL",
                "SB",
                "KN",
                "LC",
                "VC",
                "SR",
                "TL",
                "TO",
                "TT",
                "TV",
                "VU",
                "AZ",
                "BN",
                "BI",
                "KH",
                "CM",
                "TD",
                "KM",
                "GQ",
                "SZ",
                "GA",
                "GN",
                "KG",
                "LA",
                "MO",
                "MR",
                "MN",
                "NP",
                "RW",
                "TG",
                "UZ",
                "ZW",
                "BJ",
                "MG",
                "MU",
                "MZ",
                "AO",
                "CI",
                "DJ",
                "ZM",
                "CD",
                "CG",
                "IQ",
                "LY",
                "TJ",
                "VE",
                "ET",
                "XK"
            ],
            "external_urls": {
                "spotify": "https://open.spotify.com/album/64LU4c1nfjz1t4VnGhagcg"
            },
            "href": "https://api.spotify.com/v1/albums/64LU4c1nfjz1t4VnGhagcg",
            "id": "64LU4c1nfjz1t4VnGhagcg",
            "images": [
                {
                    "url": "https://i.scdn.co/image/ab67616d0000b273904445d70d04eb24d6bb79ac",
                    "height": 640,
                    "width": 640
                },
                {
                    "url": "https://i.scdn.co/image/ab67616d00001e02904445d70d04eb24d6bb79ac",
                    "height": 300,
                    "width": 300
                },
                {
                    "url": "https://i.scdn.co/image/ab67616d00004851904445d70d04eb24d6bb79ac",
                    "height": 64,
                    "width": 64
                }
            ],
            "name": "1989 (Taylor's Version)",
            "release_date": "2023-10-26",
            "release_date_precision": "day",
            "type": "album",
            "uri": "spotify:album:64LU4c1nfjz1t4VnGhagcg",
            "artists": [
                {
                    "external_urls": {
                        "spotify": "https://open.spotify.com/artist/06HL4z0CvFAxyc27GXpf02"
                    },
                    "href": "https://api.spotify.com/v1/artists/06HL4z0CvFAxyc27GXpf02",
                    "id": "06HL4z0CvFAxyc27GXpf02",
                    "name": "Taylor Swift",
                    "type": "artist",
                    "uri": "spotify:artist:06HL4z0CvFAxyc27GXpf02"
                }
            ],
            "album_group": "album"
        },
        {
            "album_type": "album",
            "total_tracks": 22,
            "available_markets": [
                "AR",
                "AU",
                "AT",
                "BE",
                "BO",
                "BR",
                "BG",
                "CA",
                "CL",
                "CO",
                "CR",
                "CY",
                "CZ",
                "DK",
                "DO",
                "DE",
                "EC",
                "EE",
                "SV",
                "FI",
                "FR",
                "GR",
                "GT",
                "HN",
                "HK",
                "HU",
                "IS",
                "IE",
                "IT",
                "LV",
                "LT",
                "LU",
                "MY",
                "MT",
                "MX",
                "NL",
                "NZ",
                "NI",
                "NO",
                "PA",
                "PY",
                "PE",
                "PH",
                "PL",
                "PT",
                "SG",
                "SK",
                "ES",
                "SE",
                "CH",
                "TW",
                "TR",
                "UY",
                "US",
                "GB",
                "AD",
                "LI",
                "MC",
                "ID",
                "JP",
                "TH",
                "VN",
                "RO",
                "IL",
                "ZA",
                "SA",
                "AE",
                "BH",
                "QA",
                "OM",
                "KW",
                "EG",
                "MA",
                "DZ",
                "TN",
                "LB",
                "JO",
                "PS",
                "IN",
                "KZ",
                "MD",
                "UA",
                "AL",
                "BA",
                "HR",
                "ME",
                "MK",
                "RS",
                "SI",
                "KR",
                "BD",
                "PK",
                "LK",
                "GH",
                "KE",
                "NG",
                "TZ",
                "UG",
                "AG",
                "AM",
                "BS",
                "BB",
                "BZ",
                "BT",
                "BW",
                "BF",
                "CV",
                "CW",
                "DM",
                "FJ",
                "GM",
                "GE",
                "GD",
                "GW",
                "GY",
                "HT",
                "JM",
                "KI",
                "LS",
                "LR",
                "MW",
                "MV",
                "ML",
                "MH",
                "FM",
                "NA",
                "NR",
                "NE",
                "PW",
                "PG",
                "WS",
                "SM",
                "ST",
                "SN",
                "SC",
                "SL",
                "SB",
                "KN",
                "LC",
                "VC",
                "SR",
                "TL",
                "TO",
                "TT",
                "TV",
                "VU",
                "AZ",
                "BN",
                "BI",
                "KH",
                "CM",
                "TD",
                "KM",
                "GQ",
                "SZ",
                "GA",
                "GN",
                "KG",
                "LA",
                "MO",
                "MR",
                "MN",
                "NP",
                "RW",
                "TG",
                "UZ",
                "ZW",
                "BJ",
                "MG",
                "MU",
                "MZ",
                "AO",
                "CI",
                "DJ",
                "ZM",
                "CD",
                "CG",
                "IQ",
                "LY",
                "TJ",
                "VE",
                "ET",
                "XK"
            ],
            "external_urls": {
                "spotify": "https://open.spotify.com/album/5AEDGbliTTfjOB8TSm1sxt"
            },
            "href": "https://api.spotify.com/v1/albums/5AEDGbliTTfjOB8TSm1sxt",
            "id": "5AEDGbliTTfjOB8TSm1sxt",
            "images": [
                {
                    "url": "https://i.scdn.co/image/ab67616d0000b2730b04da4f224b51ff86e0a481",
                    "height": 640,
                    "width": 640
                },
                {
                    "url": "https://i.scdn.co/image/ab67616d00001e020b04da4f224b51ff86e0a481",
                    "height": 300,
                    "width": 300
                },
                {
                    "url": "https://i.scdn.co/image/ab67616d000048510b04da4f224b51ff86e0a481",
                    "height": 64,
                    "width": 64
                }
            ],
            "name": "Speak Now (Taylor's Version)",
            "release_date": "2023-07-07",
            "release_date_precision": "day",
            "type": "album",
            "uri": "spotify:album:5AEDGbliTTfjOB8TSm1sxt",
            "artists": [
                {
                    "external_urls": {
                        "spotify": "https://open.spotify.com/artist/06HL4z0CvFAxyc27GXpf02"
                    },
                    "href": "https://api.spotify.com/v1/artists/06HL4z0CvFAxyc27GXpf02",
                    "id": "06HL4z0CvFAxyc27GXpf02",
                    "name": "Taylor Swift",
                    "type": "artist",
                    "uri": "spotify:artist:06HL4z0CvFAxyc27GXpf02"
                }
            ],
            "album_group": "album"
        }
    ]
}